\relax 
\@writefile{lof}{\contentsline {figure}{\numberline {1}{\ignorespaces \IeC {\"U}bersichtsseite der Webanwendung}}{2}}
\newlabel{fig:overviewScreen}{{1}{2}}
\citation{Ganglia}
\citation{Lemon}
\@writefile{toc}{\contentsline {section}{\numberline {1}Problemstellung}{3}}
\@writefile{toc}{\contentsline {section}{\numberline {2}Milestones}{3}}
\@writefile{toc}{\contentsline {section}{\numberline {3}Clustermonitoring-Systeme}{4}}
\@writefile{toc}{\contentsline {section}{\numberline {4}Programmarchitektur}{4}}
\citation{JSON}
\citation{Smarty}
\citation{Services_JSON}
\@writefile{lof}{\contentsline {figure}{\numberline {2}{\ignorespaces Architektur\IeC {\"u}bersicht}}{5}}
\newlabel{fig:architektur}{{2}{5}}
\@writefile{lof}{\contentsline {figure}{\numberline {3}{\ignorespaces Vereinfachte Darstellung der Datenstruktur f\IeC {\"u}r Konfigurations- und Clusterdaten. Eintr\IeC {\"a}ge in Gro\IeC {\ss }schrift stellen Arrays dar.}}{6}}
\newlabel{fig:data}{{3}{6}}
\@writefile{lof}{\contentsline {figure}{\numberline {4}{\ignorespaces Ganglia Data Retrieval}}{7}}
\newlabel{fig:gangliaArch}{{4}{7}}
\@writefile{toc}{\contentsline {section}{\numberline {5}Anbindung von Ganglia}{7}}
\citation{gnuplot}
\citation{PHP-GNUPlot}
\@writefile{toc}{\contentsline {section}{\numberline {6}Anbindung von Lemon}{8}}
\@writefile{toc}{\contentsline {section}{\numberline {7}Visualisierung der Daten mit Gnuplot}{8}}
\@writefile{lof}{\contentsline {figure}{\numberline {5}{\ignorespaces Lemon Data Retrieval}}{9}}
\newlabel{fig:lemonArch}{{5}{9}}
\@writefile{lof}{\contentsline {figure}{\numberline {6}{\ignorespaces CPU-Nutzung durch User, Nice und System in einem Graph}}{10}}
\newlabel{fig:cpuLast}{{6}{10}}
\@writefile{lot}{\contentsline {table}{\numberline {1}{\ignorespaces Laufzeiten des originalen PHP-GNUPlot und der f\IeC {\"u}r diese Projekt ver\IeC {\"a}nderten Version gemessen mit synthetischen Daten.}}{10}}
\newlabel{tab:php-gnuplot}{{1}{10}}
\@writefile{toc}{\contentsline {section}{\numberline {8}Zusammenfassung und Ausblick}{10}}
\@writefile{toc}{\contentsline {section}{\numberline {9}Installationsanleitung}{11}}
\bibcite{Lemon}{1}
\bibcite{Ganglia}{2}
\bibcite{PHP-GNUPlot}{3}
\bibcite{gnuplot}{4}
\bibcite{JSON}{5}
\bibcite{Services_JSON}{6}
\bibcite{Smarty}{7}
