\contentsline {section}{\numberline {1}Problemstellung}{3}
\contentsline {section}{\numberline {2}Milestones}{3}
\contentsline {section}{\numberline {3}Clustermonitoring-Systeme}{4}
\contentsline {section}{\numberline {4}Programmarchitektur}{4}
\contentsline {section}{\numberline {5}Anbindung von Ganglia}{7}
\contentsline {section}{\numberline {6}Anbindung von Lemon}{8}
\contentsline {section}{\numberline {7}Visualisierung der Daten mit Gnuplot}{8}
\contentsline {section}{\numberline {8}Zusammenfassung und Ausblick}{10}
\contentsline {section}{\numberline {9}Installationsanleitung}{11}
